main.c:70:5:main	8	static
main.c:117:6:SystemClock_Config	192	static
main.c:166:13:MX_USART2_UART_Init	8	static
main.c:199:13:MX_DMA_Init	16	static
main.c:217:13:MX_GPIO_Init	16	static
main.c:226:6:HAL_UART_RxCpltCallback	16	static
main.c:244:6:Error_Handler	4	static
